<?xml version="1.0" encoding="utf-8"?>
<!-- Generator: Adobe Illustrator 16.0.0, SVG Export Plug-In . SVG Version: 6.00 Build 0)  -->
<!DOCTYPE svg PUBLIC "-//W3C//DTD SVG 1.1//EN" "http://www.w3.org/Graphics/SVG/1.1/DTD/svg11.dtd">
<svg version="1.1" id="Calque_1" xmlns="http://www.w3.org/2000/svg" xmlns:xlink="http://www.w3.org/1999/xlink" x="0px" y="0px"
	 width="113.387px" height="113.387px" viewBox="0 0 113.387 113.387" enable-background="new 0 0 113.387 113.387"
	 xml:space="preserve">
<rect x="-6.307" y="-7.307" fill-rule="evenodd" clip-rule="evenodd" width="127" height="130"/>
<g>
	<path fill-rule="evenodd" clip-rule="evenodd" fill="#EC88AE" d="M57.331,114.386c-11.705,0-23.409,0-35.114,0
		c-12.104,0-21.465-9.337-21.465-21.41c0-23.597-0.001-47.194,0-70.792C0.753,10.479,10.199,1.003,21.871,1.002
		c23.738-0.001,47.478-0.002,71.216,0c11.505,0.001,21.046,9.509,21.048,20.979c0.004,23.785,0.003,47.571,0,71.356
		c-0.001,11.496-9.521,21.044-20.984,21.048C81.211,114.389,69.271,114.386,57.331,114.386z M25.241,80.333
		c0.188,0.24,0.23,0.334,0.304,0.381c0.316,0.202,0.635,0.402,0.964,0.583c11.037,6.058,22.525,6.869,34.237,2.445
		c14.631-5.526,24.893-20.7,24.86-36.41c-0.004-1.711,0.47-2.79,1.799-3.89c1.8-1.488,3.296-3.345,4.923-5.043
		c-0.085-0.065-0.171-0.131-0.256-0.196c-2.325,0.622-4.651,1.243-6.977,1.865c-0.063-0.107-0.127-0.215-0.19-0.322
		c2.585-1.793,4.578-4.018,5.542-6.958c-2.521,0.891-4.947,1.741-7.368,2.607c-0.843,0.301-1.41,0.053-2.107-0.548
		c-4.096-3.523-8.797-4.613-13.914-2.769c-5.087,1.833-8.188,5.55-9.047,10.917c-0.274,1.715-0.043,3.511-0.043,5.395
		c-11.6-0.823-21.081-5.657-28.723-14.563c-3.307,7.326-1.868,13.361,4.077,18.442c-0.083,0.099-0.166,0.197-0.248,0.295
		c-1.87-0.509-3.74-1.018-5.668-1.543c0,3.194,1.071,6.021,3.06,8.522c1.971,2.481,4.595,4.001,7.647,4.88
		c-0.042,0.133-0.084,0.264-0.126,0.396c-1.85,0-3.699,0-5.75,0c2.404,5.907,6.614,9.023,13.029,9.655
		C39.149,79.042,32.609,80.898,25.241,80.333z"/>
</g>
</svg>
